<svg width="80" height="80" viewBox="0 0 80 80" version="1.1" xmlns="http://www.w3.org/2000/svg" xmlns:xlink="http://www.w3.org/1999/xlink">
<g data-name="Canvas" fill="none">
<g data-name="value-prop-goals" clip-path="url(#clip0)">
<rect width="80" height="80" fill="white"/>
<g data-name="Group 4">
<g data-name="Ellipse" opacity="0.5">
<g transform="translate(19.6008 0)">
<circle cx="30" cy="30" r="30" fill="#CAF0FC"/>
</g>
</g>
<g data-name="noun_981106_cc" style="mix-blend-mode:multiply">
<g data-name="Group">
<g data-name="Vector">
<g transform="translate(26.9285 30.7)">
<use xlink:href="#path1" fill="#1E69D5"/>
</g>
</g>
<g data-name="Vector">
<g transform="translate(25.0286 69.6)">
<use xlink:href="#path2" fill="#1E69D5"/>
</g>
</g>
<g data-name="Vector">
<g transform="translate(31.6284 73)">
<use xlink:href="#path3" fill="#1E69D5"/>
</g>
</g>
<g data-name="Vector">
<g transform="translate(38.3284 69.6)">
<use xlink:href="#path4" fill="#1E69D5"/>
</g>
</g>
<g data-name="Vector">
<g transform="translate(13 13)">
<use xlink:href="#path5" fill="#1E69D5"/>
</g>
</g>
</g>
</g>
</g>
</g>
</g>
<defs>

<clipPath id="clip0">
<rect width="80" height="80" fill="white"/>
</clipPath>
<path id="path1" d="M 5.5 7.62939e-07C 2.5 7.62939e-07 3.8147e-07 2.5 3.8147e-07 5.5C 3.8147e-07 8.5 2.5 11 5.5 11C 8.5 11 11 8.5 11 5.5C 11 2.5 8.5 7.62939e-07 5.5 7.62939e-07ZM 5.5 9.5C 3.3 9.5 1.5 7.7 1.5 5.5C 1.5 3.3 3.3 1.5 5.5 1.5C 7.7 1.5 9.5 3.3 9.5 5.5C 9.5 7.7 7.7 9.5 5.5 9.5Z"/>
<path id="path2" d="M 1.5 0L 0 0L 0 4.9L 1.5 4.9L 1.5 0Z"/>
<path id="path3" d="M 1.5 0L 0 0L 0 5.1L 1.5 5.1L 1.5 0Z"/>
<path id="path4" d="M 1.5 0L 0 0L 0 4.9L 1.5 4.9L 1.5 0Z"/>
<path id="path5" d="M 47.6285 9.6C 47.0285 9.6 46.5285 9.7 45.9285 9.8C 45.4285 7 42.9285 4.8 40.0285 4.8C 38.0285 4.8 36.1285 5.8 35.0285 7.5C 34.3285 7.1 33.3285 6.7 32.1285 6.8C 30.5285 6.8 28.9285 7.4 27.8285 8.6C 27.5285 8.9 27.2285 9.3 26.9285 9.8C 23.7285 4.3 20.3285 0.8 20.0285 0.5L 19.4285 0L 18.9285 0.5C 18.3285 1 6.02845 13.6 6.02845 29.5C 6.02845 32.3 6.22845 35.1 6.52845 37.7C 3.52845 39.1 -0.371547 43.2 0.0284534 48.3C 0.128453 50.6 0.828454 52.7 1.82845 54.4L 3.02845 56.5L 3.22845 54.1C 3.42845 50.8 6.32845 48 8.62845 46.9C 8.92845 47.9 9.32845 48.9 9.72845 49.9L 9.92845 50.3L 15.6285 50.3L 16.1285 54.8L 22.4285 54.8L 22.9285 50.3L 28.6285 50.3L 28.8285 49.9C 29.2285 49 29.6285 48 29.9285 46.9C 32.2285 48.1 35.1285 50.8 35.3285 54.1L 35.5285 56.5L 36.7285 54.4C 37.7285 52.6 38.4285 50.5 38.5285 48.3C 38.8285 43.2 35.0285 39.1 32.0285 37.7C 32.3285 35.1 32.5285 32.3 32.5285 29.5C 32.5285 26.8 32.1285 24.2 31.5285 21.7L 47.3285 21.7C 50.6285 21.7 53.3285 19 53.3285 15.7C 53.6285 12.3 50.9285 9.6 47.6285 9.6ZM 2.22845 51.7C 1.82845 50.6 1.62845 49.4 1.52845 48.2C 1.22845 44.1 4.22845 40.6 6.82845 39.2C 7.12845 41.4 7.62845 43.5 8.22845 45.4C 6.02845 46.5 3.32845 48.8 2.22845 51.7ZM 17.6285 53.3L 16.1285 40.3L 22.8285 40.3L 21.3285 53.3L 17.6285 53.3ZM 27.8285 48.8L 23.3285 48.8L 24.5285 38.8L 14.4285 38.8L 15.6285 48.8L 11.0285 48.8C 8.82845 43.6 7.62845 36.7 7.62845 29.5C 7.62845 16.1 17.1285 4.8 19.5285 2.2C 21.9285 4.8 31.4285 16.2 31.4285 29.5C 31.2285 36.7 30.0285 43.6 27.8285 48.8ZM 37.2285 48.2C 37.1285 49.4 36.9285 50.6 36.5285 51.7C 35.4285 48.7 32.8285 46.5 30.6285 45.4C 31.2285 43.5 31.6285 41.4 32.0285 39.2C 34.6285 40.7 37.5285 44.2 37.2285 48.2ZM 47.6285 20.2L 31.4285 20.2C 30.5285 17 29.2285 14 27.8285 11.4C 28.0285 10.8 28.4285 10.2 28.9285 9.7C 29.8285 8.8 30.9285 8.4 32.2285 8.3C 33.6285 8.2 34.8285 9.2 34.8285 9.2L 35.5285 9.8L 35.9285 9C 36.7285 7.4 38.2285 6.4 40.0285 6.4C 42.5285 6.4 44.5285 8.4 44.5285 10.9C 44.5285 11.4 44.4285 11.9 44.3285 12.3L 45.7285 12.8C 45.8285 12.4 45.9285 11.9 46.0285 11.4C 46.5285 11.2 47.0285 11.1 47.6285 11.1C 50.1285 11.1 52.1285 13.1 52.1285 15.6C 52.1285 18.2 50.1285 20.2 47.6285 20.2Z"/>

</defs>
</svg>

